TriggerSummaryStep1                                    0     0   DEBUG In summary 0 chains passed:
TriggerSummaryStep2                                    0     0   DEBUG In summary 0 chains passed:
TriggerSummaryStep1                                    1     0   DEBUG In summary 8 chains passed:
TriggerSummaryStep1                                    1     0   DEBUG  +++ HLT_2TestChain6_muv1_L12MU6 ID#1408409992
TriggerSummaryStep1                                    1     0   DEBUG  +++ HLT_TestChain5_ev1_L1EM3 ID#1756953305
TriggerSummaryStep1                                    1     0   DEBUG  +++ leg000_HLT_TestChain6_muv1_TestChain10_muv1_L12MU6 ID#1790520567
TriggerSummaryStep1                                    1     0   DEBUG  +++ HLT_TestChain5_ev3_L1EM7 ID#2336588294
TriggerSummaryStep1                                    1     0   DEBUG  +++ HLT_TestChain8_ev1_L1EM3 ID#2478217953
TriggerSummaryStep1                                    1     0   DEBUG  +++ HLT_TestChain6_muv1_TestChain10_muv1_L12MU6 ID#3196402061
TriggerSummaryStep1                                    1     0   DEBUG  +++ leg001_HLT_TestChain6_muv1_TestChain10_muv1_L12MU6 ID#3844733695
TriggerSummaryStep1                                    1     0   DEBUG  +++ HLT_TestChain5_gv1_L1EM7 ID#3893303900
TriggerSummaryStep2                                    1     0   DEBUG In summary 3 chains passed:
TriggerSummaryStep2                                    1     0   DEBUG  +++ HLT_TestChain5_ev1_L1EM3 ID#1756953305
TriggerSummaryStep2                                    1     0   DEBUG  +++ HLT_TestChain5_ev3_L1EM7 ID#2336588294
TriggerSummaryStep2                                    1     0   DEBUG  +++ HLT_TestChain8_ev1_L1EM3 ID#2478217953
TriggerSummaryStep3                                    1     0   DEBUG In summary 2 chains passed:
TriggerSummaryStep3                                    1     0   DEBUG  +++ HLT_TestChain5_ev1_L1EM3 ID#1756953305
TriggerSummaryStep3                                    1     0   DEBUG  +++ HLT_TestChain8_ev1_L1EM3 ID#2478217953
TriggerSummaryStep1                                    2     0   DEBUG In summary 23 chains passed:
TriggerSummaryStep1                                    2     0   DEBUG  +++ leg000_HLT_TestChain5_ev1_TestChain8_ev1_L12EM3 ID#1092141028
TriggerSummaryStep1                                    2     0   DEBUG  +++ leg001_HLT_TestChain5_ev1_TestChain8_ev1_L12EM3 ID#1132652453
TriggerSummaryStep1                                    2     0   DEBUG  +++ leg000_HLT_TestChain6_muv1_TestChain10_ev1_L1EM7_MU10 ID#1241022881
TriggerSummaryStep1                                    2     0   DEBUG  +++ HLT_2TestChain6_muv1_L12MU6 ID#1408409992
TriggerSummaryStep1                                    2     0   DEBUG  +++ HLT_TestChain5_ev1_L1EM3 ID#1756953305
TriggerSummaryStep1                                    2     0   DEBUG  +++ leg000_HLT_TestChain6_muv1_TestChain10_muv1_L12MU6 ID#1790520567
TriggerSummaryStep1                                    2     0   DEBUG  +++ HLT_TestChain6_muv2_TestChain8_ev2_L1EM7_MU10 ID#1883945626
TriggerSummaryStep1                                    2     0   DEBUG  +++ HLT_2TestChain6_muEmpty1_L12MU6 ID#2176116418
TriggerSummaryStep1                                    2     0   DEBUG  +++ leg001_HLT_TestChain6_muv2_TestChain8_ev2_L1EM7_MU10 ID#2261571957
TriggerSummaryStep1                                    2     0   DEBUG  +++ HLT_TestChain8_muv1_L1MU10 ID#2288364952
TriggerSummaryStep1                                    2     0   DEBUG  +++ HLT_TestChain8_ev1_L1EM3 ID#2478217953
TriggerSummaryStep1                                    2     0   DEBUG  +++ HLT_TestChain6_muEmpty2_L1MU6 ID#2511524900
TriggerSummaryStep1                                    2     0   DEBUG  +++ leg001_HLT_TestChain10_muEmpty1_TestChain6_muEmpty1_L12MU6 ID#2599553377
TriggerSummaryStep1                                    2     0   DEBUG  +++ HLT_TestChain5_ev1_TestChain8_ev1_L12EM3 ID#2709794009
TriggerSummaryStep1                                    2     0   DEBUG  +++ HLT_TestChain6_muv1_TestChain10_ev1_L1EM7_MU10 ID#2748291265
TriggerSummaryStep1                                    2     0   DEBUG  +++ HLT_TestChain10_muEmpty1_TestChain6_muEmpty1_L12MU6 ID#2764921170
TriggerSummaryStep1                                    2     0   DEBUG  +++ leg001_HLT_TestChain6_muv1_TestChain10_ev1_L1EM7_MU10 ID#3060005588
TriggerSummaryStep1                                    2     0   DEBUG  +++ HLT_TestChain6_muv1_TestChain10_muv1_L12MU6 ID#3196402061
TriggerSummaryStep1                                    2     0   DEBUG  +++ HLT_TestChain10_muv2_L1MU10 ID#3482819675
TriggerSummaryStep1                                    2     0   DEBUG  +++ HLT_TestChain8_muv1step_L1MU6 ID#3588359947
TriggerSummaryStep1                                    2     0   DEBUG  +++ leg001_HLT_TestChain6_muv1_TestChain10_muv1_L12MU6 ID#3844733695
TriggerSummaryStep1                                    2     0   DEBUG  +++ leg000_HLT_TestChain6_muv2_TestChain8_ev2_L1EM7_MU10 ID#3957881558
TriggerSummaryStep1                                    2     0   DEBUG  +++ leg000_HLT_TestChain10_muEmpty1_TestChain6_muEmpty1_L12MU6 ID#4097287954
TriggerSummaryStep2                                    2     0   DEBUG In summary 20 chains passed:
TriggerSummaryStep2                                    2     0   DEBUG  +++ leg000_HLT_TestChain5_ev1_TestChain8_ev1_L12EM3 ID#1092141028
TriggerSummaryStep2                                    2     0   DEBUG  +++ leg001_HLT_TestChain5_ev1_TestChain8_ev1_L12EM3 ID#1132652453
TriggerSummaryStep2                                    2     0   DEBUG  +++ leg000_HLT_TestChain6_muv1_TestChain10_ev1_L1EM7_MU10 ID#1241022881
TriggerSummaryStep2                                    2     0   DEBUG  +++ HLT_2TestChain6_muv1_L12MU6 ID#1408409992
TriggerSummaryStep2                                    2     0   DEBUG  +++ HLT_TestChain5_ev1_L1EM3 ID#1756953305
TriggerSummaryStep2                                    2     0   DEBUG  +++ HLT_TestChain6_muv2_TestChain8_ev2_L1EM7_MU10 ID#1883945626
TriggerSummaryStep2                                    2     0   DEBUG  +++ HLT_2TestChain6_muEmpty1_L12MU6 ID#2176116418
TriggerSummaryStep2                                    2     0   DEBUG  +++ leg001_HLT_TestChain6_muv2_TestChain8_ev2_L1EM7_MU10 ID#2261571957
TriggerSummaryStep2                                    2     0   DEBUG  +++ HLT_TestChain8_muv1_L1MU10 ID#2288364952
TriggerSummaryStep2                                    2     0   DEBUG  +++ HLT_TestChain8_ev1_L1EM3 ID#2478217953
TriggerSummaryStep2                                    2     0   DEBUG  +++ HLT_TestChain6_muEmpty2_L1MU6 ID#2511524900
TriggerSummaryStep2                                    2     0   DEBUG  +++ leg001_HLT_TestChain10_muEmpty1_TestChain6_muEmpty1_L12MU6 ID#2599553377
TriggerSummaryStep2                                    2     0   DEBUG  +++ HLT_TestChain5_ev1_TestChain8_ev1_L12EM3 ID#2709794009
TriggerSummaryStep2                                    2     0   DEBUG  +++ HLT_TestChain6_muv1_TestChain10_ev1_L1EM7_MU10 ID#2748291265
TriggerSummaryStep2                                    2     0   DEBUG  +++ HLT_TestChain10_muEmpty1_TestChain6_muEmpty1_L12MU6 ID#2764921170
TriggerSummaryStep2                                    2     0   DEBUG  +++ leg001_HLT_TestChain6_muv1_TestChain10_ev1_L1EM7_MU10 ID#3060005588
TriggerSummaryStep2                                    2     0   DEBUG  +++ HLT_TestChain10_muv2_L1MU10 ID#3482819675
TriggerSummaryStep2                                    2     0   DEBUG  +++ HLT_TestChain8_muv1step_L1MU6 ID#3588359947
TriggerSummaryStep2                                    2     0   DEBUG  +++ leg000_HLT_TestChain6_muv2_TestChain8_ev2_L1EM7_MU10 ID#3957881558
TriggerSummaryStep2                                    2     0   DEBUG  +++ leg000_HLT_TestChain10_muEmpty1_TestChain6_muEmpty1_L12MU6 ID#4097287954
TriggerSummaryStep3                                    2     0   DEBUG In summary 13 chains passed:
TriggerSummaryStep3                                    2     0   DEBUG  +++ leg000_HLT_TestChain5_ev1_TestChain8_ev1_L12EM3 ID#1092141028
TriggerSummaryStep3                                    2     0   DEBUG  +++ leg001_HLT_TestChain5_ev1_TestChain8_ev1_L12EM3 ID#1132652453
TriggerSummaryStep3                                    2     0   DEBUG  +++ leg000_HLT_TestChain6_muv1_TestChain10_ev1_L1EM7_MU10 ID#1241022881
TriggerSummaryStep3                                    2     0   DEBUG  +++ HLT_2TestChain6_muv1_L12MU6 ID#1408409992
TriggerSummaryStep3                                    2     0   DEBUG  +++ HLT_TestChain5_ev1_L1EM3 ID#1756953305
TriggerSummaryStep3                                    2     0   DEBUG  +++ HLT_TestChain6_muv2_TestChain8_ev2_L1EM7_MU10 ID#1883945626
TriggerSummaryStep3                                    2     0   DEBUG  +++ leg001_HLT_TestChain6_muv2_TestChain8_ev2_L1EM7_MU10 ID#2261571957
TriggerSummaryStep3                                    2     0   DEBUG  +++ HLT_TestChain8_ev1_L1EM3 ID#2478217953
TriggerSummaryStep3                                    2     0   DEBUG  +++ HLT_TestChain6_muEmpty2_L1MU6 ID#2511524900
TriggerSummaryStep3                                    2     0   DEBUG  +++ HLT_TestChain5_ev1_TestChain8_ev1_L12EM3 ID#2709794009
TriggerSummaryStep3                                    2     0   DEBUG  +++ HLT_TestChain6_muv1_TestChain10_ev1_L1EM7_MU10 ID#2748291265
TriggerSummaryStep3                                    2     0   DEBUG  +++ leg001_HLT_TestChain6_muv1_TestChain10_ev1_L1EM7_MU10 ID#3060005588
TriggerSummaryStep3                                    2     0   DEBUG  +++ leg000_HLT_TestChain6_muv2_TestChain8_ev2_L1EM7_MU10 ID#3957881558
TriggerSummaryStep4                                    2     0   DEBUG In summary 5 chains passed:
TriggerSummaryStep4                                    2     0   DEBUG  +++ leg000_HLT_TestChain6_muv1_TestChain10_ev1_L1EM7_MU10 ID#1241022881
TriggerSummaryStep4                                    2     0   DEBUG  +++ HLT_2TestChain6_muv1_L12MU6 ID#1408409992
TriggerSummaryStep4                                    2     0   DEBUG  +++ HLT_TestChain6_muEmpty2_L1MU6 ID#2511524900
TriggerSummaryStep4                                    2     0   DEBUG  +++ HLT_TestChain6_muv1_TestChain10_ev1_L1EM7_MU10 ID#2748291265
TriggerSummaryStep4                                    2     0   DEBUG  +++ leg001_HLT_TestChain6_muv1_TestChain10_ev1_L1EM7_MU10 ID#3060005588
TriggerSummaryStep1                                    3     0   DEBUG In summary 9 chains passed:
TriggerSummaryStep1                                    3     0   DEBUG  +++ HLT_TestChain20_muv1_L1MU10 ID#356594709
TriggerSummaryStep1                                    3     0   DEBUG  +++ leg000_HLT_TestChain6_muv1_TestChain10_ev1_L1EM7_MU10 ID#1241022881
TriggerSummaryStep1                                    3     0   DEBUG  +++ HLT_TestChain6_muv2_TestChain8_ev2_L1EM7_MU10 ID#1883945626
TriggerSummaryStep1                                    3     0   DEBUG  +++ leg001_HLT_TestChain6_muv2_TestChain8_ev2_L1EM7_MU10 ID#2261571957
TriggerSummaryStep1                                    3     0   DEBUG  +++ HLT_TestChain8_muv1_L1MU10 ID#2288364952
TriggerSummaryStep1                                    3     0   DEBUG  +++ HLT_TestChain8_ev1_L1EM3 ID#2478217953
TriggerSummaryStep1                                    3     0   DEBUG  +++ HLT_TestChain6_muv1_TestChain10_ev1_L1EM7_MU10 ID#2748291265
TriggerSummaryStep1                                    3     0   DEBUG  +++ HLT_TestChain8_muv1step_L1MU6 ID#3588359947
TriggerSummaryStep1                                    3     0   DEBUG  +++ leg000_HLT_TestChain6_muv2_TestChain8_ev2_L1EM7_MU10 ID#3957881558
TriggerSummaryStep2                                    3     0   DEBUG In summary 7 chains passed:
TriggerSummaryStep2                                    3     0   DEBUG  +++ HLT_TestChain20_muv1_L1MU10 ID#356594709
TriggerSummaryStep2                                    3     0   DEBUG  +++ HLT_TestChain6_muv2_TestChain8_ev2_L1EM7_MU10 ID#1883945626
TriggerSummaryStep2                                    3     0   DEBUG  +++ leg001_HLT_TestChain6_muv2_TestChain8_ev2_L1EM7_MU10 ID#2261571957
TriggerSummaryStep2                                    3     0   DEBUG  +++ HLT_TestChain8_muv1_L1MU10 ID#2288364952
TriggerSummaryStep2                                    3     0   DEBUG  +++ HLT_TestChain8_ev1_L1EM3 ID#2478217953
TriggerSummaryStep2                                    3     0   DEBUG  +++ HLT_TestChain8_muv1step_L1MU6 ID#3588359947
TriggerSummaryStep2                                    3     0   DEBUG  +++ leg000_HLT_TestChain6_muv2_TestChain8_ev2_L1EM7_MU10 ID#3957881558
TriggerSummaryStep3                                    3     0   DEBUG In summary 6 chains passed:
TriggerSummaryStep3                                    3     0   DEBUG  +++ HLT_TestChain20_muv1_L1MU10 ID#356594709
TriggerSummaryStep3                                    3     0   DEBUG  +++ HLT_TestChain6_muv2_TestChain8_ev2_L1EM7_MU10 ID#1883945626
TriggerSummaryStep3                                    3     0   DEBUG  +++ leg001_HLT_TestChain6_muv2_TestChain8_ev2_L1EM7_MU10 ID#2261571957
TriggerSummaryStep3                                    3     0   DEBUG  +++ HLT_TestChain8_muv1_L1MU10 ID#2288364952
TriggerSummaryStep3                                    3     0   DEBUG  +++ HLT_TestChain8_ev1_L1EM3 ID#2478217953
TriggerSummaryStep3                                    3     0   DEBUG  +++ leg000_HLT_TestChain6_muv2_TestChain8_ev2_L1EM7_MU10 ID#3957881558
TriggerSummaryStep4                                    3     0   DEBUG In summary 2 chains passed:
TriggerSummaryStep4                                    3     0   DEBUG  +++ HLT_TestChain20_muv1_L1MU10 ID#356594709
TriggerSummaryStep4                                    3     0   DEBUG  +++ HLT_TestChain8_muv1_L1MU10 ID#2288364952
TrigSignatureMoni                                                 INFO HLT_2TestChain4_muv1dr_L12MU6 #3176095517
TrigSignatureMoni                                                 INFO -- #3176095517 Events         0          0          0          0          0          0          0          
TrigSignatureMoni                                                 INFO -- #3176095517 Features                             0          0          0          0          
TrigSignatureMoni                                                 INFO HLT_2TestChain6_muEmpty1_L12MU6 #2176116418
TrigSignatureMoni                                                 INFO -- #2176116418 Events         1          1          -          1          -          -          1          
TrigSignatureMoni                                                 INFO -- #2176116418 Features                             -          3          -          -          
TrigSignatureMoni                                                 INFO HLT_2TestChain6_muv1_L12MU6 #1408409992
TrigSignatureMoni                                                 INFO -- #1408409992 Events         2          2          1          1          1          1          1          
TrigSignatureMoni                                                 INFO -- #1408409992 Features                             3          3          3          3          
TrigSignatureMoni                                                 INFO HLT_3TestChain6_muv1_L12MU6 #2217088100
TrigSignatureMoni                                                 INFO -- #2217088100 Events         0          0          0          0          0          0          0          
TrigSignatureMoni                                                 INFO -- #2217088100 Features                             0          0          0          0          
TrigSignatureMoni                                                 INFO HLT_TestChain10_muEmpty1_TestChain6_muEmpty1_L12MU6 #2764921170
TrigSignatureMoni                                                 INFO -- #2764921170 Events         1          1          -          1          -          -          1          
TrigSignatureMoni                                                 INFO -- #2764921170 Features                             -          4          -          -          
TrigSignatureMoni                                                 INFO HLT_TestChain10_muv2_L1MU10 #3482819675
TrigSignatureMoni                                                 INFO -- #3482819675 Events         2          2          1          0          0          -          0          
TrigSignatureMoni                                                 INFO -- #3482819675 Features                             1          0          0          -          
TrigSignatureMoni                                                 INFO HLT_TestChain20_muv1_L1MU10 #356594709
TrigSignatureMoni                                                 INFO -- #356594709 Events          1          1          1          1          1          1          1          
TrigSignatureMoni                                                 INFO -- #356594709 Features                              1          1          1          1          
TrigSignatureMoni                                                 INFO HLT_TestChain5_ev1_L1EM3 #1756953305
TrigSignatureMoni                                                 INFO -- #1756953305 Events         3          3          2          2          2          -          2          
TrigSignatureMoni                                                 INFO -- #1756953305 Features                             4          4          4          -          
TrigSignatureMoni                                                 INFO HLT_TestChain5_ev1_TestChain8_ev1_L12EM3 #2709794009
TrigSignatureMoni                                                 INFO -- #2709794009 Events         1          1          1          1          1          -          1          
TrigSignatureMoni                                                 INFO -- #2709794009 Features                             4          4          4          -          
TrigSignatureMoni                                                 INFO HLT_TestChain5_ev2_L1EM7 #1760405581
TrigSignatureMoni                                                 INFO -- #1760405581 Events         0          0          0          0          -          -          0          
TrigSignatureMoni                                                 INFO -- #1760405581 Features                             0          0          -          -          
TrigSignatureMoni                                                 INFO HLT_TestChain5_ev3_L1EM7 #2336588294
TrigSignatureMoni                                                 INFO -- #2336588294 Events         1          1          1          1          -          -          1          
TrigSignatureMoni                                                 INFO -- #2336588294 Features                             2          2          -          -          
TrigSignatureMoni                                                 INFO HLT_TestChain5_gv1_L1EM7 #3893303900
TrigSignatureMoni                                                 INFO -- #3893303900 Events         1          1          1          -          -          -          1          
TrigSignatureMoni                                                 INFO -- #3893303900 Features                             2          -          -          -          
TrigSignatureMoni                                                 INFO HLT_TestChain6_muEmpty2_L1MU6 #2511524900
TrigSignatureMoni                                                 INFO -- #2511524900 Events         1          1          1          -          1          1          1          
TrigSignatureMoni                                                 INFO -- #2511524900 Features                             3          -          3          3          
TrigSignatureMoni                                                 INFO HLT_TestChain6_muv1_TestChain10_ev1_L1EM7_MU10 #2748291265
TrigSignatureMoni                                                 INFO -- #2748291265 Events         2          2          1          1          1          1          1          
TrigSignatureMoni                                                 INFO -- #2748291265 Features                             4          3          3          1          
TrigSignatureMoni                                                 INFO HLT_TestChain6_muv1_TestChain10_muv1_L12MU6 #3196402061
TrigSignatureMoni                                                 INFO -- #3196402061 Events         2          2          1          0          0          0          0          
TrigSignatureMoni                                                 INFO -- #3196402061 Features                             4          3          0          0          
TrigSignatureMoni                                                 INFO HLT_TestChain6_muv1_TestChain5_ev1dr_L1EM7_MU10 #437234536
TrigSignatureMoni                                                 INFO -- #437234536 Events          0          0          0          0          0          0          0          
TrigSignatureMoni                                                 INFO -- #437234536 Features                              0          0          0          0          
TrigSignatureMoni                                                 INFO HLT_TestChain6_muv2_TestChain8_ev2_L1EM7_MU10 #1883945626
TrigSignatureMoni                                                 INFO -- #1883945626 Events         2          2          2          2          2          -          2          
TrigSignatureMoni                                                 INFO -- #1883945626 Features                             5          5          2          -          
TrigSignatureMoni                                                 INFO HLT_TestChain8_ev1_L1EM3 #2478217953
TrigSignatureMoni                                                 INFO -- #2478217953 Events         4          4          3          3          3          -          3          
TrigSignatureMoni                                                 INFO -- #2478217953 Features                             4          4          4          -          
TrigSignatureMoni                                                 INFO HLT_TestChain8_muv1_L1MU10 #2288364952
TrigSignatureMoni                                                 INFO -- #2288364952 Events         2          2          2          1          1          1          1          
TrigSignatureMoni                                                 INFO -- #2288364952 Features                             2          1          1          1          
TrigSignatureMoni                                                 INFO HLT_TestChain8_muv1step_L1MU6 #3588359947
TrigSignatureMoni                                                 INFO -- #3588359947 Events         2          2          2          -          -          -          2          
TrigSignatureMoni                                                 INFO -- #3588359947 Features                             3          -          -          -          
